; Engine configuration file.
; It's best edited using the editor UI and not directly,
; since the parameters that go here are not all obvious.
;
; Format:
;   [section] ; section goes between []
;   param=value ; assign values to parameters

config_version=4

_global_script_classes=[ {
"base": "HitRigidBody",
"class": "AbstractShipController",
"language": "GDScript",
"path": "res://src/Ships/ShipController.gd"
}, {
"base": "Spatial",
"class": "Checkpoint",
"language": "GDScript",
"path": "res://src/Levels/Checkpoint/Checkpoint.gd"
}, {
"base": "Object",
"class": "ErrorReporting",
"language": "GDScript",
"path": "res://src/Utils/ErrorReporting.gd"
}, {
"base": "Spatial",
"class": "GraphicalShip",
"language": "GDScript",
"path": "res://src/Ships/GraphicalShip.gd"
}, {
"base": "RigidBody",
"class": "HitRigidBody",
"language": "GDScript",
"path": "res://src/Utils/HitRigidBody.gd"
}, {
"base": "AbstractShipController",
"class": "IAShipController",
"language": "GDScript",
"path": "res://src/Ships/IA/IAShip.gd"
}, {
"base": "Spatial",
"class": "InterpolateFollow",
"language": "GDScript",
"path": "res://src/Utils/InterpolateFollow.gd"
}, {
"base": "Spatial",
"class": "Level",
"language": "GDScript",
"path": "res://src/Levels/Level.gd"
}, {
"base": "AbstractShipController",
"class": "PlayerShipController",
"language": "GDScript",
"path": "res://src/Ships/player/PlayerShip.gd"
}, {
"base": "CPUParticles",
"class": "Truster",
"language": "GDScript",
"path": "res://src/Ships/VFX/Truster.gd"
} ]
_global_script_class_icons={
"AbstractShipController": "",
"Checkpoint": "",
"ErrorReporting": "",
"GraphicalShip": "",
"HitRigidBody": "",
"IAShipController": "",
"InterpolateFollow": "",
"Level": "",
"PlayerShipController": "",
"Truster": ""
}

[application]

config/name="Star Runner"
run/main_scene="res://src/Menu/MainMenu.tscn"
config/icon="res://icon.png"

[editor_plugins]

enabled=PoolStringArray( "res://addons/gut/plugin.cfg", "res://addons/scatter/plugin.cfg", "res://addons/zylann.translation_editor/plugin.cfg" )

[input]

forward={
"deadzone": 0.5,
"events": [ Object(InputEventKey,"resource_local_to_scene":false,"resource_name":"","device":0,"alt":false,"shift":false,"control":false,"meta":false,"command":false,"pressed":false,"scancode":90,"unicode":0,"echo":false,"script":null)
, Object(InputEventKey,"resource_local_to_scene":false,"resource_name":"","device":0,"alt":false,"shift":false,"control":false,"meta":false,"command":false,"pressed":false,"scancode":81,"unicode":0,"echo":false,"script":null)
 ]
}
boost={
"deadzone": 0.5,
"events": [ Object(InputEventKey,"resource_local_to_scene":false,"resource_name":"","device":0,"alt":false,"shift":false,"control":false,"meta":false,"command":false,"pressed":false,"scancode":16777237,"unicode":0,"echo":false,"script":null)
, Object(InputEventMouseButton,"resource_local_to_scene":false,"resource_name":"","device":0,"alt":false,"shift":false,"control":false,"meta":false,"command":false,"button_mask":0,"position":Vector2( 0, 0 ),"global_position":Vector2( 0, 0 ),"factor":1.0,"button_index":2,"pressed":false,"doubleclick":false,"script":null)
 ]
}

[layer_names]

3d_physics/layer_5="Mouse Interaction"

[locale]

translations=PoolStringArray( "res://src/Localisation/en.po", "res://src/Localisation/fr.po" )
locale_filter=[ 0, [  ] ]

[logging]

file_logging/enable_file_logging=true
file_logging/max_log_files=20

[rendering]

vram_compression/import_etc=true
vram_compression/import_etc2=false
environment/default_environment="res://default_env.tres"
