[gd_scene load_steps=4 format=2]

[ext_resource path="res://assets/menu/display/ship_display.glb" type="PackedScene" id=1]
[ext_resource path="res://src/Menu/heat_effect.tres" type="Material" id=2]

[sub_resource type="CylinderMesh" id=1]
top_radius = 0.001
bottom_radius = 0.9
height = 1.0

[node name="ship_display" instance=ExtResource( 1 )]

[node name="heat" type="MeshInstance" parent="." index="1"]
transform = Transform( 1, 0, 0, 0, 1, 0, 0, 0, 1, 0, 1.44229, 0 )
mesh = SubResource( 1 )
material/0 = ExtResource( 2 )
